<?xml version="1.0" encoding="UTF-8" standalone="no"?>
<!-- Created with Inkscape (http://www.inkscape.org/) -->

<svg
   version="1.1"
   id="svg2"
   width="23.281584"
   height="23.324667"
   viewBox="0 0 25.836566 25.884377"
   sodipodi:docname="color_pista.svg"
   inkscape:version="1.2.1 (9c6d41e410, 2022-07-14)"
   inkscape:export-filename="color_pista.png"
   inkscape:export-xdpi="164.93723"
   inkscape:export-ydpi="164.93723"
   xmlns:inkscape="http://www.inkscape.org/namespaces/inkscape"
   xmlns:sodipodi="http://sodipodi.sourceforge.net/DTD/sodipodi-0.dtd"
   xmlns:xlink="http://www.w3.org/1999/xlink"
   xmlns="http://www.w3.org/2000/svg"
   xmlns:svg="http://www.w3.org/2000/svg"
   xmlns:rdf="http://www.w3.org/1999/02/22-rdf-syntax-ns#"
   xmlns:cc="http://creativecommons.org/ns#"
   xmlns:dc="http://purl.org/dc/elements/1.1/">
  <metadata
     id="metadata8">
    <rdf:RDF>
      <cc:Work
         rdf:about="">
        <dc:format>image/svg+xml</dc:format>
        <dc:type
           rdf:resource="http://purl.org/dc/dcmitype/StillImage" />
      </cc:Work>
    </rdf:RDF>
  </metadata>
  <defs
     id="defs6">
    <inkscape:path-effect
       effect="powerclip"
       id="path-effect22936"
       is_visible="true"
       lpeversion="1"
       inverse="true"
       flatten="false"
       hide_clip="false"
       message="Utilice la regla de relleno parimpar en el diálogo &lt;b&gt;Relleno y borde&lt;/b&gt; si el resultado no está aplanada después de convertir el recorte en trayectos." />
    <linearGradient
       inkscape:collect="always"
       id="linearGradient6845">
      <stop
         style="stop-color:#ffffff;stop-opacity:0;"
         offset="0"
         id="stop6841" />
      <stop
         style="stop-color:#ffffff;stop-opacity:0.69999999;"
         offset="1"
         id="stop6843" />
    </linearGradient>
    <linearGradient
       inkscape:collect="always"
       id="linearGradient825-2">
      <stop
         style="stop-color:#b5b5b5;stop-opacity:1"
         offset="0"
         id="stop821" />
      <stop
         style="stop-color:#ffffff;stop-opacity:1"
         offset="1"
         id="stop823" />
    </linearGradient>
    <inkscape:path-effect
       effect="powerclip"
       id="path-effect12176-7"
       is_visible="true"
       lpeversion="1"
       inverse="true"
       flatten="false"
       hide_clip="false"
       message="Utilice la regla de relleno parimpar en el diálogo &lt;b&gt;Relleno y borde&lt;/b&gt; si el resultado no está aplanada después de convertir el recorte en trayectos." />
    <filter
       style="color-interpolation-filters:sRGB"
       inkscape:label="Sombra Gota"
       id="filter5194-1-2"
       x="-0.12500836"
       y="-0.086675132"
       width="1.2500167"
       height="1.1733503">
      <feFlood
         flood-opacity="0.498039"
         flood-color="rgb(0,0,0)"
         result="flood"
         id="feFlood5184-2-9" />
      <feComposite
         in="flood"
         in2="SourceGraphic"
         operator="in"
         result="composite1"
         id="feComposite5186-7-3" />
      <feGaussianBlur
         in="composite1"
         stdDeviation="0.5"
         result="blur"
         id="feGaussianBlur5188-0-1" />
      <feOffset
         dx="0"
         dy="0"
         result="offset"
         id="feOffset5190-9-9" />
      <feComposite
         in="SourceGraphic"
         in2="offset"
         operator="over"
         result="composite2"
         id="feComposite5192-3-4" />
    </filter>
    <inkscape:path-effect
       effect="powerclip"
       id="path-effect5725-7"
       is_visible="true"
       lpeversion="1"
       inverse="true"
       flatten="false"
       hide_clip="false"
       message="Utilice la regla de relleno parimpar en el diálogo &lt;b&gt;Relleno y borde&lt;/b&gt; si el resultado no está aplanada después de convertir el recorte en trayectos." />
    <clipPath
       clipPathUnits="userSpaceOnUse"
       id="clipath_lpe_path-effect5725-7">
      <path
         style="display:none;fill:#00711a;fill-opacity:1;stroke:none;stroke-width:0.83;stroke-linecap:butt;stroke-linejoin:round;stroke-miterlimit:4;stroke-dasharray:none;stroke-opacity:1;paint-order:stroke fill markers"
         d="m -1.2821255,17.945278 4.4000791,-9.1816047 4.399921,9.1816047 c 3.0537784,6.37252 -11.704465,6.06072 -8.8000001,0 z"
         id="path6644"
         inkscape:connector-curvature="0"
         sodipodi:nodetypes="scss" />
      <path
         id="lpe_path-effect5725-7"
         style="fill:#00711a;fill-opacity:1;stroke:none;stroke-width:0.83;stroke-linecap:butt;stroke-linejoin:round;stroke-miterlimit:4;stroke-dasharray:none;stroke-opacity:1;paint-order:stroke fill markers"
         class="powerclip"
         d="M -7.8629964,2.5636733 H 14.136361 V 28.808476 H -7.8629964 Z m 6.5808709,15.3816047 c -2.9044649,6.06072 11.8537785,6.37252 8.8000001,0 L 3.1179536,8.7636733 Z" />
    </clipPath>
    <linearGradient
       inkscape:collect="always"
       xlink:href="#linearGradient825-2"
       id="linearGradient6649"
       gradientUnits="userSpaceOnUse"
       gradientTransform="matrix(0.96978442,0,0,0.96978442,-8.0422848,4.252913)"
       x1="4.7775002"
       y1="22.072142"
       x2="4.9025002"
       y2="1.6971416" />
    <linearGradient
       inkscape:collect="always"
       xlink:href="#linearGradient6845"
       id="linearGradient6847"
       x1="-26.265131"
       y1="21.941494"
       x2="-26.467072"
       y2="7.3274646"
       gradientUnits="userSpaceOnUse"
       gradientTransform="matrix(1.1059609,0,0,1.1080075,35.270822,2.2832094)" />
    <clipPath
       clipPathUnits="userSpaceOnUse"
       id="clipPath22932">
      <path
         style="display:none;fill:#ffffff;fill-opacity:1;stroke:none;stroke-width:0.829999;stroke-linecap:butt;stroke-linejoin:round;stroke-miterlimit:4;stroke-dasharray:none;stroke-opacity:1;paint-order:stroke fill markers"
         d="m -1.282626,17.945778 4.4000793,-9.181605 4.3999209,9.181605 c 3.0537788,6.37252 -11.7044639,6.06072 -8.8000002,0 z"
         id="path22934"
         inkscape:connector-curvature="0"
         sodipodi:nodetypes="scss" />
      <path
         id="lpe_path-effect22936"
         style="display:block;fill:#ffffff;fill-opacity:1;stroke:none;stroke-width:0.829999;stroke-linecap:butt;stroke-linejoin:round;stroke-miterlimit:4;stroke-dasharray:none;stroke-opacity:1;paint-order:stroke fill markers"
         class="powerclip"
         d="M -13.064593,-0.51392333 H 19.336602 V 31.887271 H -13.064593 Z M -1.282626,17.945778 c -2.9044637,6.06072 11.853779,6.37252 8.8000002,0 L 3.1174533,8.764173 Z" />
    </clipPath>
    <filter
       style="color-interpolation-filters:sRGB"
       inkscape:label="Sombra Cuadrado"
       id="filter27251"
       x="-0.10222645"
       y="-0.10222645"
       width="1.2044529"
       height="1.2044529">
      <feFlood
         flood-opacity="0.40000000000000002"
         flood-color="rgb(0,0,0)"
         result="flood"
         id="feFlood27241" />
      <feComposite
         in="flood"
         in2="SourceGraphic"
         operator="in"
         result="composite1"
         id="feComposite27243" />
      <feGaussianBlur
         in="composite1"
         stdDeviation="0.69999999999999996"
         result="blur"
         id="feGaussianBlur27245" />
      <feOffset
         dx="0"
         dy="0"
         result="offset"
         id="feOffset27247" />
      <feComposite
         in="SourceGraphic"
         in2="offset"
         operator="over"
         result="composite2"
         id="feComposite27249" />
    </filter>
    <filter
       style="color-interpolation-filters:sRGB"
       inkscape:label="Sombra Gota"
       id="filter5194-1-2-7"
       x="-0.080700964"
       y="-0.072007568"
       width="1.1614019"
       height="1.1440151">
      <feFlood
         flood-opacity="0.498039"
         flood-color="rgb(0,0,0)"
         result="flood"
         id="feFlood5184-2-9-5" />
      <feComposite
         in="flood"
         in2="SourceGraphic"
         operator="in"
         result="composite1"
         id="feComposite5186-7-3-3" />
      <feGaussianBlur
         in="composite1"
         stdDeviation="0.5"
         result="blur"
         id="feGaussianBlur5188-0-1-5" />
      <feOffset
         dx="0"
         dy="0"
         result="offset"
         id="feOffset5190-9-9-6" />
      <feComposite
         in="SourceGraphic"
         in2="offset"
         operator="over"
         result="composite2"
         id="feComposite5192-3-4-2" />
    </filter>
  </defs>
  <sodipodi:namedview
     pagecolor="#ffffff"
     bordercolor="#666666"
     borderopacity="1"
     objecttolerance="10"
     gridtolerance="10"
     guidetolerance="10"
     inkscape:pageopacity="0"
     inkscape:pageshadow="2"
     inkscape:window-width="1280"
     inkscape:window-height="673"
     id="namedview4"
     showgrid="false"
     inkscape:zoom="16"
     inkscape:cx="3.5625"
     inkscape:cy="18.09375"
     inkscape:window-x="282"
     inkscape:window-y="294"
     inkscape:window-maximized="0"
     inkscape:current-layer="g1243"
     fit-margin-top="0"
     fit-margin-left="0"
     fit-margin-right="0"
     fit-margin-bottom="0"
     inkscape:showpageshadow="2"
     inkscape:pagecheckerboard="0"
     inkscape:deskcolor="#d1d1d1">
    <inkscape:grid
       type="xygrid"
       id="grid1154"
       originx="7.3725341"
       originy="5.5079255" />
  </sodipodi:namedview>
  <g
     id="g1243"
     style="filter:url(#filter1255)"
     transform="translate(6.8639965,-5.6866733)"
     inkscape:export-filename="/home/carlos/piano/pausa.png"
     inkscape:export-xdpi="262"
     inkscape:export-ydpi="262">
    <g
       transform="translate(20.087545,-0.986961)"
       id="g1159-1" />
    <rect
       style="fill:url(#linearGradient6847);fill-opacity:1;stroke-width:0.686341;stroke-linejoin:round;paint-order:stroke fill markers"
       id="rect6839"
       width="14.869711"
       height="16.664915"
       x="-1.5563824"
       y="10.094797"
       ry="4.2027512"
       inkscape:export-filename="rect6839.png"
       inkscape:export-xdpi="175.76503"
       inkscape:export-ydpi="175.76503" />
    <path
       ry="1.1796881"
       y="5.9888291"
       x="-6.5618405"
       height="19.395689"
       width="19.395689"
       id="rect1142-3-4"
       style="fill:url(#linearGradient6649);fill-opacity:1;stroke:#999999;stroke-width:0.605505;stroke-linecap:butt;stroke-linejoin:round;stroke-miterlimit:4;stroke-dasharray:none;stroke-opacity:1;paint-order:normal;filter:url(#filter27251)"
       clip-path="url(#clipPath22932)"
       sodipodi:type="rect"
       transform="matrix(1.1059609,0,0,1.1080075,2.5859893,1.2479103)"
       d="M -5.3821524,5.9888291 H 11.65416 c 0.653548,0 1.179688,0.5261409 1.179688,1.1796881 V 24.20483 c 0,0.653547 -0.52614,1.179688 -1.179688,1.179688 H -5.3821524 c -0.6535472,0 -1.1796881,-0.526141 -1.1796881,-1.179688 V 7.1685172 c 0,-0.6535472 0.5261409,-1.1796881 1.1796881,-1.1796881 z"
       inkscape:path-effect="#path-effect22936" />
    <path
       style="fill:#000000;fill-opacity:1;stroke:none;stroke-width:0.83;stroke-linecap:butt;stroke-linejoin:round;stroke-miterlimit:4;stroke-dasharray:none;stroke-opacity:1;paint-order:stroke fill markers;filter:url(#filter5194-1-2)"
       d="m -1.2821256,17.945277 4.4000787,-9.1816037 4.399921,9.1816037 c 3.0537799,6.37252 -11.7044643,6.06072 -8.7999997,0 z"
       id="path877-9-06-09-3-6-50"
       inkscape:connector-curvature="0"
       sodipodi:nodetypes="scss"
       clip-path="url(#clipath_lpe_path-effect5725-7)"
       inkscape:path-effect="#path-effect5725-7"
       inkscape:original-d="m -1.2821256,17.945277 4.4000787,-9.1816037 4.399921,9.1816037 c 3.0537799,6.37252 -11.7044643,6.06072 -8.7999997,0 z"
       transform="matrix(1.1059609,0,0,1.1080075,2.5859893,1.2479103)" />
  </g>
</svg>
